"race_id","horse_name"
"2018-05-09_EVD_2","HAVINFUNYET"
"2018-05-09_EVD_2","HAVINFUNYET"
"2018-05-09_EVD_2","HAVINFUNYET"
"2018-05-09_EVD_6","HOPEFUL JOY"
"2018-05-09_EVD_6","HOPEFUL JOY"
"2018-05-09_EVD_6","HOPEFUL JOY"
"2018-05-09_EVD_6","HOPEFUL JOY"
"2018-05-09_MNR_8","SUNRISE COUNTESSA"
"2018-05-09_MNR_8","SUNRISE COUNTESSA"
"2018-05-09_MNR_8","SUNRISE COUNTESSA"
"2018-05-10_BTP_6","SMARTY KITTEN"
"2018-05-10_BTP_6","SMARTY KITTEN"
"2018-05-10_BTP_6","SMARTY KITTEN"
"2018-05-10_EVD_1","PLEASANT BUFFY"
"2018-05-10_EVD_1","PLEASANT BUFFY"
"2018-05-10_EVD_1","PLEASANT BUFFY"
"2018-05-10_EVD_2","G. A. BETTING"
"2018-05-10_EVD_2","G. A. BETTING"
"2018-05-10_EVD_2","G. A. BETTING"
"2018-05-10_EVD_4","HEAT FLASH"
"2018-05-10_EVD_4","HEAT FLASH"
"2018-05-10_EVD_4","HEAT FLASH"
"2018-05-10_EVD_7","WELLS GOLD"
"2018-05-10_EVD_7","WELLS GOLD"
"2018-05-10_EVD_7","WELLS GOLD"
"2018-05-10_GG_1","GAL FACTOR"
"2018-05-10_GG_1","GAL FACTOR"
"2018-05-10_GG_1","GAL FACTOR"
"2018-05-10_GG_5","SON OF THE SOUTH"
"2018-05-10_GG_5","SON OF THE SOUTH"
"2018-05-10_GG_5","SON OF THE SOUTH"
"2018-05-10_GG_5","SON OF THE SOUTH"
"2018-05-10_GG_7","HOLY WHIRL WIND"
"2018-05-10_GG_7","HOLY WHIRL WIND"
"2018-05-10_GG_7","HOLY WHIRL WIND"
"2018-05-10_GG_7","HOLY WHIRL WIND"
"2018-05-10_PIM_3","MEDDYBEMPS"
"2018-05-10_PIM_3","MEDDYBEMPS"
"2018-05-10_PIM_3","MEDDYBEMPS"
"2018-05-10_PIM_3","MEDDYBEMPS"
"2018-05-11_BTP_8","CROWNED PRINCESS"
"2018-05-11_BTP_8","CROWNED PRINCESS"
"2018-05-11_BTP_8","CROWNED PRINCESS"
"2018-05-11_BTP_8","CROWNED PRINCESS"
"2018-05-11_EVD_4","SKEETER"
"2018-05-11_EVD_4","SKEETER"
"2018-05-11_EVD_4","SKEETER"
"2018-05-11_EVD_4","SKEETER"
"2018-05-11_GG_1","BLACKHAWK BEAUTY"
"2018-05-11_GG_1","BLACKHAWK BEAUTY"
"2018-05-11_GG_1","BLACKHAWK BEAUTY"
"2018-05-11_GG_1","TORO DE TORO"
"2018-05-11_GG_8","SEATTLE DROP"
"2018-05-11_GG_8","SEATTLE DROP"
"2018-05-11_GG_8","SEATTLE DROP"
"2018-05-11_PEN_7","RUMOR MILL"
"2018-05-11_PEN_7","RUMOR MILL"
"2018-05-11_PEN_7","RUMOR MILL"
"2018-05-11_PEN_8","ONE FOR DON"
"2018-05-11_PEN_8","ONE FOR DON"
"2018-05-11_PEN_8","ONE FOR DON"
"2018-05-12_BTP_1","DISONES PRETTY"
"2018-05-12_BTP_1","DISONES PRETTY"
"2018-05-12_BTP_1","DISONES PRETTY"
"2018-05-12_BTP_2","HANDIWORK"
"2018-05-12_BTP_2","HANDIWORK"
"2018-05-12_BTP_2","HANDIWORK"
"2018-05-12_BTP_2","HANDIWORK"
"2018-05-12_BTP_3","IN A FLURY"
"2018-05-12_BTP_3","IN A FLURY"
"2018-05-12_BTP_3","IN A FLURY"
"2018-05-12_GG_7","OF NOTE"
"2018-05-12_GG_7","OF NOTE"
"2018-05-12_GG_7","OF NOTE"
"2018-05-12_LAD_4","BIG GAME BABY"
"2018-05-12_LAD_4","BIG GAME BABY"
"2018-05-12_LAD_4","BIG GAME BABY"
"2018-05-12_LAD_4","BIG GAME BABY"
"2018-05-12_LS_1","BELLARMINE"
"2018-05-12_LS_1","BELLARMINE"
"2018-05-12_LS_1","BELLARMINE"
"2018-05-12_MTH_2","NICHE"
"2018-05-12_MTH_2","NICHE"
"2018-05-12_MTH_2","NICHE"
"2018-05-12_PEN_2","DECADENT DOLL"
"2018-05-12_PEN_2","DECADENT DOLL"
"2018-05-12_PEN_2","DECADENT DOLL"
"2018-05-12_WRD_1","OKIE TRAIL"
"2018-05-12_WRD_1","OKIE TRAIL"
"2018-05-12_WRD_1","OKIE TRAIL"
"2018-05-12_WRD_6","CHARLOTTEINCHARGE"
"2018-05-12_WRD_6","CHARLOTTEINCHARGE"
"2018-05-12_WRD_6","CHARLOTTEINCHARGE"
"2018-05-13_BEL_8","TAKE IT TO SCALE"
"2018-05-13_BEL_8","TAKE IT TO SCALE"
"2018-05-13_BEL_8","TAKE IT TO SCALE"
"2018-05-13_BEL_8","TAKE IT TO SCALE"
"2018-05-13_GG_8","PLEASE DO"
"2018-05-13_GG_8","PLEASE DO"
"2018-05-13_GG_8","PLEASE DO"
"2018-05-13_GG_9","SPECIAL SEASON (GB)"
"2018-05-13_GG_9","SPECIAL SEASON (GB)"
"2018-05-13_GG_9","SPECIAL SEASON (GB)"
"2018-05-13_LS_5","PRIEST N THE RABBI"
"2018-05-13_LS_5","PRIEST N THE RABBI"
"2018-05-13_LS_5","PRIEST N THE RABBI"
"2018-05-13_LS_7","OUTAMOWAY GIRLS"
"2018-05-13_LS_7","OUTAMOWAY GIRLS"
"2018-05-13_LS_7","OUTAMOWAY GIRLS"
"2018-05-13_LS_9","STANZA"
"2018-05-13_LS_9","STANZA"
"2018-05-13_LS_9","STANZA"
"2018-05-13_MNR_9","CANTMAKETHISUP"
"2018-05-13_MNR_9","CANTMAKETHISUP"
"2018-05-13_MNR_9","CANTMAKETHISUP"
"2018-05-13_MTH_4","PORT ARCH"
"2018-05-13_MTH_4","PORT ARCH"
"2018-05-13_MTH_4","PORT ARCH"
"2018-05-13_PRM_7","PINSON"
"2018-05-13_PRM_7","PINSON"
"2018-05-13_PRM_7","PINSON"
"2018-05-13_PRX_3","COLD HEARTED PEARL"
"2018-05-13_PRX_3","COLD HEARTED PEARL"
"2018-05-13_PRX_3","COLD HEARTED PEARL"
"2018-05-13_PRX_3","COLD HEARTED PEARL"
"2018-05-14_FL_1","PRAETEREO"
"2018-05-14_FL_1","PRAETEREO"
"2018-05-14_FL_1","PRAETEREO"
"2018-05-14_FL_1","PRAETEREO"
"2018-05-14_LAD_1","DRAKARYS"
"2018-05-14_LAD_1","DRAKARYS"
"2018-05-14_LAD_1","DRAKARYS"
"2018-05-14_LAD_1","DRAKARYS"
"2018-05-14_LAD_6","THROWACROSS"
"2018-05-14_LAD_6","THROWACROSS"
"2018-05-14_LAD_6","THROWACROSS"
"2018-05-14_LAD_6","THROWACROSS"
"2018-05-14_PID_3","ADMIRALS COVE"
"2018-05-14_PID_3","ADMIRALS COVE"
"2018-05-14_PID_3","ADMIRALS COVE"
"2018-05-14_PID_3","ADMIRALS COVE"
"2018-05-14_TDN_1","JACK TRIPP"
"2018-05-14_TDN_1","JACK TRIPP"
"2018-05-14_TDN_1","JACK TRIPP"
"2018-05-14_TDN_1","BEING THERE"
"2018-05-14_TDN_1","JACK TRIPP"
"2018-05-14_WRD_8","BLUEGRASS BRONCO"
"2018-05-14_WRD_8","BLUEGRASS BRONCO"
"2018-05-14_WRD_8","BLUEGRASS BRONCO"
"2018-05-14_WRD_9","BUDS MR. B"
"2018-05-14_WRD_9","BUDS MR. B"
"2018-05-14_WRD_9","BUDS MR. B"
"2018-05-15_LAD_7","NIPPY RED"
"2018-05-15_LAD_7","NIPPY RED"
"2018-05-15_LAD_7","NIPPY RED"
"2018-05-15_LAD_7","NIPPY RED"
"2018-05-15_MNR_5","MISSION OF HONOR"
"2018-05-15_MNR_5","MISSION OF HONOR"
"2018-05-15_MNR_5","MISSION OF HONOR"
"2018-05-15_MNR_5","MISSION OF HONOR"
"2018-05-15_PID_4","TREE FIRE"
"2018-05-15_PID_4","TREE FIRE"
"2018-05-15_PID_4","TREE FIRE"
"2018-05-15_PID_4","TREE FIRE"
"2018-05-15_PRX_8","DEGROM"
"2018-05-15_PRX_8","DEGROM"
"2018-05-15_PRX_8","DEGROM"
"2018-05-15_TDN_3","HONOR THY FATHER"
"2018-05-15_TDN_3","HONOR THY FATHER"
"2018-05-15_TDN_3","HONOR THY FATHER"
"2018-05-15_TDN_3","CAPTIVATED"
"2018-05-15_TDN_3","HONOR THY FATHER"
"2018-05-15_TDN_7","ESKENDULCE"
"2018-05-15_TDN_7","ESKENDULCE"
"2018-05-15_TDN_7","ESKENDULCE"
"2018-05-15_TDN_7","ESKENDULCE"
"2018-05-15_WRD_7","LAST DESSERT"
"2018-05-15_WRD_7","LAST DESSERT"
"2018-05-15_WRD_7","LAST DESSERT"
"2018-05-16_EVD_5","CASTLE ZIP"
"2018-05-16_EVD_5","CASTLE ZIP"
"2018-05-16_EVD_5","CASTLE ZIP"
"2018-05-16_EVD_5","AVERY LYNN"
"2018-05-16_EVD_5","CASTLE ZIP"
"2018-05-16_FL_7","BROADWAY BAY"
"2018-05-16_FL_7","BROADWAY BAY"
"2018-05-16_FL_7","BROADWAY BAY"
"2018-05-16_PID_5","TINTO MESA"
"2018-05-16_PID_5","TINTO MESA"
"2018-05-16_PID_5","TINTO MESA"
"2018-05-16_TDN_4","SUNNY DAZE"
"2018-05-16_TDN_4","SUNNY DAZE"
"2018-05-16_TDN_4","SUNNY DAZE"
"2018-05-16_TDN_4","SUNNY DAZE"
"2018-05-17_BEL_9","HIGH PROMISE"
"2018-05-17_BTP_1","CLASSY STUDENT"
"2018-05-17_BTP_1","CLASSY STUDENT"
"2018-05-17_BTP_1","CLASSY STUDENT"
"2018-05-17_BTP_1","CLASSY STUDENT"
"2018-05-17_BTP_1","NATIVE INDY"
"2018-05-17_GG_1","NEAT N TEIDE"
"2018-05-17_GG_1","NEAT N TEIDE"
"2018-05-17_GG_1","NEAT N TEIDE"
"2018-05-17_GG_4","ANYTHINGSCOOKIN"
"2018-05-17_GG_4","ANYTHINGSCOOKIN"
"2018-05-17_GG_4","ANYTHINGSCOOKIN"
"2018-05-18_BEL_7","THAIS (FR)"
"2018-05-18_BEL_7","THAIS (FR)"
"2018-05-18_BEL_7","THAIS (FR)"
"2018-05-18_EVD_3","CAP ROCK MINER"
"2018-05-18_EVD_3","CAP ROCK MINER"
"2018-05-18_EVD_3","CAP ROCK MINER"
"2018-05-18_EVD_3","CAP ROCK MINER"
"2018-05-18_EVD_8","CALAMITY JANE"
"2018-05-18_LS_3","DANCING DOVE"
"2018-05-18_LS_3","DANCING DOVE"
"2018-05-18_LS_3","DANCING DOVE"
"2018-05-18_LS_7","NASTY CRITTER"
"2018-05-18_LS_7","NASTY CRITTER"
"2018-05-18_LS_7","NASTY CRITTER"
"2018-05-18_PEN_6","UNION RIVER"
"2018-05-18_PEN_6","UNION RIVER"
"2018-05-18_PEN_6","UNION RIVER"
"2018-05-18_PEN_6","UNION RIVER"
"2018-05-18_PIM_12","THEWAYIAM (FR)"
"2018-05-18_PIM_12","THEWAYIAM (FR)"
"2018-05-18_PIM_12","THEWAYIAM (FR)"
"2018-05-19_BEL_5","GRAND BANKS"
"2018-05-19_BEL_5","GRAND BANKS"
"2018-05-19_BEL_5","GRAND BANKS"
"2018-05-19_BTP_1","JIMMU"
"2018-05-19_BTP_1","JIMMU"
"2018-05-19_BTP_1","JIMMU"
"2018-05-19_BTP_5","ALREADY PACKED"
"2018-05-19_BTP_5","ALREADY PACKED"
"2018-05-19_BTP_5","ALREADY PACKED"
"2018-05-19_BTP_5","ALREADY PACKED"
"2018-05-19_BTP_8","REPROVE"
"2018-05-19_BTP_8","REPROVE"
"2018-05-19_BTP_8","REPROVE"
"2018-05-19_BTP_8","DATE ARCH"
"2018-05-19_BTP_8","REPROVE"
"2018-05-19_EVD_6","MADAME BEGUE"
"2018-05-19_EVD_6","MADAME BEGUE"
"2018-05-19_EVD_6","MADAME BEGUE"
"2018-05-19_EVD_6","FASTEN"
"2018-05-19_EVD_6","MADAME BEGUE"
"2018-05-19_FL_4","DIVA CHICK"
"2018-05-19_LAD_2","ONE KING CAT"
"2018-05-19_LAD_2","ONE KING CAT"
"2018-05-19_LAD_2","ONE KING CAT"
"2018-05-20_BEL_2","WAY OVER BUDGET"
"2018-05-20_BEL_2","WAY OVER BUDGET"
"2018-05-20_BTP_2","NOTANINJA"
"2018-05-20_BTP_2","NOTANINJA"
"2018-05-20_BTP_2","NOTANINJA"
"2018-05-20_BTP_8","OATER"
"2018-05-20_BTP_8","OATER"
"2018-05-20_BTP_8","OATER"
"2018-05-20_BTP_8","OATER"
"2018-05-20_GG_1","BROOKES ALL MINE"
"2018-05-20_GG_1","BROOKES ALL MINE"
"2018-05-20_GG_1","BROOKES ALL MINE"
"2018-05-20_LS_10","SHIRLS READY"
"2018-05-20_LS_10","SHIRLS READY"
"2018-05-20_LS_10","SHIRLS READY"
"2018-05-20_LS_6","FRISCO GIRL"
"2018-05-20_LS_6","FRISCO GIRL"
"2018-05-20_LS_6","FRISCO GIRL"
"2018-05-20_MNR_7","SHES THIRSTY"
"2018-05-20_MNR_7","SHES THIRSTY"
"2018-05-20_MNR_7","SHES THIRSTY"
"2018-05-20_MNR_7","SHES THIRSTY"
"2018-05-20_PRM_6","FIFTYSHADESOFBAY"
"2018-05-20_PRM_6","FIFTYSHADESOFBAY"
"2018-05-20_PRM_6","FIFTYSHADESOFBAY"
"2018-05-20_PRM_7","GET THAT BOX"
"2018-05-20_PRM_7","GET THAT BOX"
"2018-05-20_PRM_7","GET THAT BOX"
"2018-05-20_PRM_7","GET THAT BOX"
